{
    "name":"nakama_pyzed_wrapper-dev",
    "dockerComposeFile": ["../docker/docker-compose-dev.yaml"],
	"service": "pyzed_wrapper",
    "workspaceFolder": "/workspace",
	"shutdownAction": "stopCompose",

	"customizations": {
		"vscode": {
			"extensions": [] 
		}
	}
}
 